[gd_scene load_steps=4 format=2]

[ext_resource path="res://Scenes/Laser.gd" type="Script" id=1]
[ext_resource path="res://Sprites/laserGreen.png" type="Texture" id=2]

[sub_resource type="RectangleShape2D" id=1]

custom_solver_bias = 0.0
extents = Vector2( 1.75204, 5.75497 )

[node name="Laser" type="Area2D"]

position = Vector2( 593.64, 458.636 )
rotation = 0.000838348
input_pickable = true
gravity_vec = Vector2( 0, 1 )
gravity = 98.0
linear_damp = 0.1
angular_damp = 1.0
audio_bus_override = false
audio_bus_name = "Master"
script = ExtResource( 1 )
speed = 500

[node name="Sprite" type="Sprite" parent="." index="0"]

scale = Vector2( 0.5, 0.5 )
texture = ExtResource( 2 )
_sections_unfolded = [ "Transform" ]

[node name="CollisionShape2D" type="CollisionShape2D" parent="." index="1"]

position = Vector2( 0.22184, -0.121817 )
scale = Vector2( 2.40202, 1.85963 )
shape = SubResource( 1 )

[connection signal="area_entered" from="." to="." method="_on_Laser_area_entered"]


